[{"name":"plan S","trans_speed":40,"plan_type":false,"promotion":true,"value":"$27949.03"},
{"name":"plan S","trans_speed":29,"plan_type":true,"promotion":true,"value":"$32042.56"},
{"name":"plan M","trans_speed":48,"plan_type":false,"promotion":false,"value":"$34706.99"},
{"name":"plan M","trans_speed":56,"plan_type":true,"promotion":false,"value":"$25425.26"},
{"name":"plan L","trans_speed":78,"plan_type":false,"promotion":true,"value":"$9533.50"},
{"name":"plan M","trans_speed":13,"plan_type":false,"promotion":false,"value":"$18468.16"},
{"name":"plan L","trans_speed":99,"plan_type":true,"promotion":false,"value":"$34213.66"},
{"name":"plan Esquilax","trans_speed":37,"plan_type":true,"promotion":true,"value":"$30723.43"},
{"name":"plan M","trans_speed":41,"plan_type":false,"promotion":true,"value":"$14834.02"},
{"name":"plan M","trans_speed":92,"plan_type":false,"promotion":false,"value":"$34982.06"},
{"name":"plan M","trans_speed":57,"plan_type":true,"promotion":false,"value":"$32762.29"},
{"name":"plan S","trans_speed":14,"plan_type":true,"promotion":true,"value":"$23352.80"},
{"name":"plan M","trans_speed":97,"plan_type":true,"promotion":true,"value":"$14196.15"},
{"name":"plan L","trans_speed":19,"plan_type":true,"promotion":false,"value":"$12432.76"},
{"name":"plan M","trans_speed":68,"plan_type":false,"promotion":false,"value":"$26482.80"},
{"name":"plan S","trans_speed":29,"plan_type":false,"promotion":false,"value":"$16110.64"},
{"name":"plan L","trans_speed":97,"plan_type":true,"promotion":false,"value":"$11070.70"},
{"name":"plan Esquilax","trans_speed":28,"plan_type":true,"promotion":true,"value":"$12298.91"},
{"name":"plan M","trans_speed":60,"plan_type":false,"promotion":false,"value":"$16268.77"},
{"name":"plan M","trans_speed":77,"plan_type":false,"promotion":false,"value":"$30571.40"},
{"name":"plan Esquilax","trans_speed":79,"plan_type":true,"promotion":false,"value":"$21358.62"},
{"name":"plan Esquilax","trans_speed":95,"plan_type":false,"promotion":false,"value":"$28091.78"},
{"name":"plan M","trans_speed":54,"plan_type":false,"promotion":false,"value":"$26316.08"},
{"name":"plan M","trans_speed":72,"plan_type":false,"promotion":true,"value":"$34366.59"},
{"name":"plan S","trans_speed":80,"plan_type":false,"promotion":true,"value":"$33864.82"},
{"name":"plan M","trans_speed":48,"plan_type":true,"promotion":false,"value":"$21989.43"},
{"name":"plan L","trans_speed":64,"plan_type":false,"promotion":false,"value":"$33692.12"},
{"name":"plan L","trans_speed":26,"plan_type":false,"promotion":true,"value":"$20783.40"},
{"name":"plan L","trans_speed":19,"plan_type":false,"promotion":false,"value":"$25070.04"},
{"name":"plan L","trans_speed":52,"plan_type":false,"promotion":false,"value":"$31709.82"},
{"name":"plan L","trans_speed":41,"plan_type":true,"promotion":false,"value":"$29521.95"},
{"name":"plan S","trans_speed":37,"plan_type":true,"promotion":false,"value":"$29503.82"},
{"name":"plan Esquilax","trans_speed":26,"plan_type":true,"promotion":true,"value":"$16403.84"},
{"name":"plan L","trans_speed":82,"plan_type":true,"promotion":true,"value":"$13952.99"},
{"name":"plan S","trans_speed":45,"plan_type":true,"promotion":true,"value":"$27030.39"},
{"name":"plan S","trans_speed":88,"plan_type":false,"promotion":true,"value":"$32296.25"},
{"name":"plan L","trans_speed":74,"plan_type":false,"promotion":false,"value":"$20476.17"},
{"name":"plan L","trans_speed":30,"plan_type":true,"promotion":true,"value":"$16462.26"},
{"name":"plan L","trans_speed":61,"plan_type":false,"promotion":false,"value":"$23837.62"},
{"name":"plan Esquilax","trans_speed":57,"plan_type":true,"promotion":false,"value":"$9721.11"},
{"name":"plan Esquilax","trans_speed":53,"plan_type":true,"promotion":true,"value":"$12528.17"},
{"name":"plan S","trans_speed":87,"plan_type":false,"promotion":false,"value":"$29979.82"},
{"name":"plan Esquilax","trans_speed":33,"plan_type":false,"promotion":true,"value":"$34830.96"},
{"name":"plan S","trans_speed":48,"plan_type":true,"promotion":false,"value":"$20186.32"},
{"name":"plan M","trans_speed":14,"plan_type":true,"promotion":false,"value":"$33319.44"},
{"name":"plan S","trans_speed":38,"plan_type":true,"promotion":false,"value":"$12059.40"},
{"name":"plan S","trans_speed":53,"plan_type":true,"promotion":true,"value":"$9879.72"},
{"name":"plan L","trans_speed":17,"plan_type":false,"promotion":false,"value":"$13758.15"},
{"name":"plan S","trans_speed":23,"plan_type":true,"promotion":true,"value":"$33109.12"},
{"name":"plan L","trans_speed":59,"plan_type":true,"promotion":true,"value":"$30711.17"},
{"name":"plan L","trans_speed":55,"plan_type":false,"promotion":false,"value":"$25031.63"},
{"name":"plan S","trans_speed":96,"plan_type":true,"promotion":false,"value":"$33861.27"},
{"name":"plan M","trans_speed":90,"plan_type":true,"promotion":true,"value":"$11953.38"},
{"name":"plan S","trans_speed":42,"plan_type":false,"promotion":false,"value":"$26283.38"},
{"name":"plan M","trans_speed":63,"plan_type":true,"promotion":false,"value":"$13038.90"},
{"name":"plan L","trans_speed":62,"plan_type":true,"promotion":true,"value":"$25812.69"},
{"name":"plan M","trans_speed":73,"plan_type":true,"promotion":false,"value":"$24668.81"},
{"name":"plan M","trans_speed":93,"plan_type":true,"promotion":true,"value":"$10261.52"},
{"name":"plan L","trans_speed":31,"plan_type":true,"promotion":true,"value":"$32967.89"},
{"name":"plan Esquilax","trans_speed":94,"plan_type":false,"promotion":true,"value":"$12549.59"},
{"name":"plan S","trans_speed":47,"plan_type":false,"promotion":true,"value":"$19606.41"},
{"name":"plan S","trans_speed":52,"plan_type":false,"promotion":false,"value":"$30943.96"},
{"name":"plan L","trans_speed":14,"plan_type":false,"promotion":false,"value":"$10024.46"},
{"name":"plan M","trans_speed":76,"plan_type":false,"promotion":true,"value":"$25403.01"},
{"name":"plan L","trans_speed":89,"plan_type":false,"promotion":true,"value":"$24159.01"},
{"name":"plan Esquilax","trans_speed":68,"plan_type":true,"promotion":false,"value":"$29865.31"},
{"name":"plan Esquilax","trans_speed":78,"plan_type":false,"promotion":false,"value":"$24660.29"},
{"name":"plan Esquilax","trans_speed":44,"plan_type":true,"promotion":false,"value":"$19555.38"},
{"name":"plan L","trans_speed":15,"plan_type":false,"promotion":false,"value":"$32079.81"},
{"name":"plan Esquilax","trans_speed":23,"plan_type":false,"promotion":true,"value":"$16679.88"},
{"name":"plan M","trans_speed":36,"plan_type":false,"promotion":true,"value":"$17578.11"},
{"name":"plan Esquilax","trans_speed":91,"plan_type":false,"promotion":false,"value":"$29677.19"},
{"name":"plan L","trans_speed":35,"plan_type":false,"promotion":false,"value":"$14176.20"},
{"name":"plan S","trans_speed":51,"plan_type":false,"promotion":false,"value":"$28143.88"},
{"name":"plan Esquilax","trans_speed":19,"plan_type":true,"promotion":false,"value":"$23483.73"},
{"name":"plan L","trans_speed":64,"plan_type":false,"promotion":true,"value":"$9953.60"},
{"name":"plan S","trans_speed":16,"plan_type":false,"promotion":true,"value":"$27143.93"},
{"name":"plan Esquilax","trans_speed":94,"plan_type":false,"promotion":false,"value":"$18494.93"},
{"name":"plan Esquilax","trans_speed":68,"plan_type":true,"promotion":true,"value":"$10059.03"},
{"name":"plan Esquilax","trans_speed":51,"plan_type":false,"promotion":false,"value":"$22572.44"},
{"name":"plan Esquilax","trans_speed":27,"plan_type":true,"promotion":false,"value":"$10361.98"},
{"name":"plan Esquilax","trans_speed":38,"plan_type":false,"promotion":false,"value":"$10469.83"},
{"name":"plan S","trans_speed":83,"plan_type":true,"promotion":true,"value":"$11804.76"},
{"name":"plan M","trans_speed":43,"plan_type":true,"promotion":false,"value":"$16848.14"},
{"name":"plan S","trans_speed":59,"plan_type":false,"promotion":false,"value":"$32463.35"},
{"name":"plan M","trans_speed":33,"plan_type":false,"promotion":false,"value":"$9040.04"},
{"name":"plan M","trans_speed":52,"plan_type":false,"promotion":false,"value":"$14658.55"},
{"name":"plan L","trans_speed":32,"plan_type":true,"promotion":false,"value":"$34438.21"},
{"name":"plan M","trans_speed":59,"plan_type":false,"promotion":true,"value":"$14848.95"},
{"name":"plan L","trans_speed":98,"plan_type":false,"promotion":true,"value":"$17548.84"},
{"name":"plan M","trans_speed":16,"plan_type":true,"promotion":true,"value":"$26764.96"},
{"name":"plan M","trans_speed":36,"plan_type":false,"promotion":false,"value":"$18022.64"},
{"name":"plan Esquilax","trans_speed":16,"plan_type":false,"promotion":true,"value":"$20264.56"},
{"name":"plan Esquilax","trans_speed":97,"plan_type":true,"promotion":false,"value":"$11113.70"},
{"name":"plan L","trans_speed":96,"plan_type":false,"promotion":true,"value":"$32777.49"},
{"name":"plan M","trans_speed":69,"plan_type":true,"promotion":true,"value":"$13446.20"},
{"name":"plan S","trans_speed":11,"plan_type":false,"promotion":false,"value":"$17313.39"},
{"name":"plan Esquilax","trans_speed":87,"plan_type":true,"promotion":true,"value":"$27704.86"},
{"name":"plan Esquilax","trans_speed":46,"plan_type":true,"promotion":true,"value":"$15206.70"},
{"name":"plan L","trans_speed":74,"plan_type":false,"promotion":false,"value":"$25343.61"},
{"name":"plan M","trans_speed":78,"plan_type":false,"promotion":true,"value":"$16656.00"},
{"name":"plan M","trans_speed":64,"plan_type":true,"promotion":true,"value":"$14960.05"},
{"name":"plan Esquilax","trans_speed":79,"plan_type":true,"promotion":true,"value":"$29520.44"},
{"name":"plan Esquilax","trans_speed":9,"plan_type":false,"promotion":false,"value":"$24163.30"},
{"name":"plan Esquilax","trans_speed":43,"plan_type":true,"promotion":false,"value":"$10248.36"},
{"name":"plan M","trans_speed":25,"plan_type":false,"promotion":false,"value":"$26065.21"},
{"name":"plan Esquilax","trans_speed":16,"plan_type":false,"promotion":false,"value":"$13523.99"},
{"name":"plan M","trans_speed":37,"plan_type":false,"promotion":false,"value":"$10597.61"},
{"name":"plan S","trans_speed":79,"plan_type":true,"promotion":false,"value":"$21864.94"},
{"name":"plan L","trans_speed":58,"plan_type":false,"promotion":false,"value":"$11453.67"},
{"name":"plan S","trans_speed":20,"plan_type":false,"promotion":false,"value":"$24149.86"},
{"name":"plan Esquilax","trans_speed":71,"plan_type":true,"promotion":false,"value":"$18472.02"},
{"name":"plan L","trans_speed":14,"plan_type":false,"promotion":true,"value":"$25495.43"},
{"name":"plan Esquilax","trans_speed":53,"plan_type":true,"promotion":true,"value":"$12950.07"},
{"name":"plan Esquilax","trans_speed":95,"plan_type":false,"promotion":false,"value":"$16678.74"},
{"name":"plan S","trans_speed":70,"plan_type":false,"promotion":true,"value":"$15377.81"},
{"name":"plan Esquilax","trans_speed":40,"plan_type":false,"promotion":false,"value":"$13439.17"},
{"name":"plan M","trans_speed":30,"plan_type":false,"promotion":true,"value":"$30600.08"},
{"name":"plan S","trans_speed":55,"plan_type":true,"promotion":false,"value":"$34275.58"},
{"name":"plan M","trans_speed":38,"plan_type":true,"promotion":true,"value":"$27139.66"},
{"name":"plan M","trans_speed":33,"plan_type":false,"promotion":true,"value":"$12683.61"},
{"name":"plan Esquilax","trans_speed":21,"plan_type":false,"promotion":false,"value":"$32709.45"},
{"name":"plan Esquilax","trans_speed":94,"plan_type":false,"promotion":true,"value":"$23064.33"},
{"name":"plan Esquilax","trans_speed":23,"plan_type":true,"promotion":true,"value":"$21443.67"},
{"name":"plan S","trans_speed":74,"plan_type":false,"promotion":true,"value":"$31422.04"},
{"name":"plan L","trans_speed":56,"plan_type":false,"promotion":false,"value":"$33676.49"},
{"name":"plan Esquilax","trans_speed":27,"plan_type":true,"promotion":true,"value":"$18515.00"},
{"name":"plan S","trans_speed":66,"plan_type":false,"promotion":false,"value":"$24167.67"},
{"name":"plan S","trans_speed":44,"plan_type":true,"promotion":true,"value":"$22145.06"},
{"name":"plan L","trans_speed":31,"plan_type":false,"promotion":true,"value":"$30160.87"},
{"name":"plan S","trans_speed":30,"plan_type":false,"promotion":false,"value":"$28849.71"},
{"name":"plan L","trans_speed":50,"plan_type":true,"promotion":true,"value":"$10037.56"},
{"name":"plan M","trans_speed":44,"plan_type":true,"promotion":false,"value":"$21800.33"},
{"name":"plan M","trans_speed":22,"plan_type":true,"promotion":true,"value":"$23523.27"},
{"name":"plan L","trans_speed":29,"plan_type":false,"promotion":false,"value":"$12602.19"},
{"name":"plan L","trans_speed":8,"plan_type":false,"promotion":true,"value":"$24199.55"},
{"name":"plan S","trans_speed":35,"plan_type":true,"promotion":true,"value":"$14220.92"},
{"name":"plan S","trans_speed":82,"plan_type":true,"promotion":false,"value":"$19572.50"},
{"name":"plan S","trans_speed":77,"plan_type":true,"promotion":true,"value":"$31766.05"},
{"name":"plan L","trans_speed":45,"plan_type":false,"promotion":true,"value":"$27966.03"},
{"name":"plan Esquilax","trans_speed":93,"plan_type":false,"promotion":false,"value":"$13892.33"},
{"name":"plan Esquilax","trans_speed":26,"plan_type":true,"promotion":false,"value":"$21348.24"},
{"name":"plan M","trans_speed":47,"plan_type":false,"promotion":false,"value":"$26907.17"},
{"name":"plan L","trans_speed":45,"plan_type":false,"promotion":false,"value":"$23177.38"},
{"name":"plan S","trans_speed":28,"plan_type":false,"promotion":false,"value":"$31788.21"},
{"name":"plan S","trans_speed":11,"plan_type":true,"promotion":false,"value":"$14902.68"},
{"name":"plan M","trans_speed":35,"plan_type":false,"promotion":true,"value":"$11155.78"},
{"name":"plan Esquilax","trans_speed":32,"plan_type":false,"promotion":false,"value":"$14164.50"},
{"name":"plan Esquilax","trans_speed":22,"plan_type":true,"promotion":true,"value":"$27690.15"},
{"name":"plan L","trans_speed":44,"plan_type":true,"promotion":true,"value":"$29334.36"},
{"name":"plan S","trans_speed":29,"plan_type":false,"promotion":true,"value":"$26713.46"},
{"name":"plan L","trans_speed":81,"plan_type":false,"promotion":false,"value":"$9045.15"},
{"name":"plan L","trans_speed":84,"plan_type":true,"promotion":true,"value":"$23076.72"},
{"name":"plan S","trans_speed":65,"plan_type":true,"promotion":true,"value":"$17199.02"},
{"name":"plan L","trans_speed":19,"plan_type":true,"promotion":true,"value":"$9871.49"},
{"name":"plan Esquilax","trans_speed":41,"plan_type":true,"promotion":true,"value":"$28833.07"},
{"name":"plan S","trans_speed":48,"plan_type":true,"promotion":false,"value":"$33523.05"},
{"name":"plan M","trans_speed":21,"plan_type":false,"promotion":false,"value":"$29531.82"},
{"name":"plan Esquilax","trans_speed":79,"plan_type":false,"promotion":false,"value":"$32571.91"},
{"name":"plan Esquilax","trans_speed":72,"plan_type":true,"promotion":false,"value":"$29228.92"},
{"name":"plan M","trans_speed":42,"plan_type":false,"promotion":true,"value":"$31258.19"},
{"name":"plan Esquilax","trans_speed":53,"plan_type":true,"promotion":false,"value":"$26873.39"},
{"name":"plan L","trans_speed":84,"plan_type":true,"promotion":true,"value":"$24538.03"},
{"name":"plan L","trans_speed":13,"plan_type":false,"promotion":false,"value":"$28651.71"},
{"name":"plan M","trans_speed":48,"plan_type":false,"promotion":false,"value":"$12481.03"},
{"name":"plan M","trans_speed":33,"plan_type":false,"promotion":true,"value":"$25613.91"},
{"name":"plan Esquilax","trans_speed":61,"plan_type":false,"promotion":false,"value":"$28624.64"},
{"name":"plan L","trans_speed":18,"plan_type":false,"promotion":false,"value":"$21140.69"},
{"name":"plan L","trans_speed":87,"plan_type":true,"promotion":false,"value":"$11605.18"},
{"name":"plan Esquilax","trans_speed":54,"plan_type":true,"promotion":true,"value":"$20585.30"},
{"name":"plan S","trans_speed":65,"plan_type":false,"promotion":true,"value":"$31796.98"},
{"name":"plan S","trans_speed":100,"plan_type":false,"promotion":true,"value":"$30274.60"},
{"name":"plan L","trans_speed":45,"plan_type":false,"promotion":false,"value":"$30479.65"},
{"name":"plan M","trans_speed":74,"plan_type":true,"promotion":true,"value":"$11769.69"},
{"name":"plan L","trans_speed":99,"plan_type":true,"promotion":false,"value":"$18440.12"},
{"name":"plan M","trans_speed":67,"plan_type":true,"promotion":true,"value":"$22683.00"},
{"name":"plan M","trans_speed":77,"plan_type":false,"promotion":true,"value":"$19754.35"},
{"name":"plan M","trans_speed":69,"plan_type":true,"promotion":true,"value":"$22582.85"},
{"name":"plan L","trans_speed":86,"plan_type":false,"promotion":false,"value":"$17328.04"},
{"name":"plan Esquilax","trans_speed":43,"plan_type":true,"promotion":true,"value":"$22508.25"},
{"name":"plan M","trans_speed":29,"plan_type":true,"promotion":false,"value":"$34989.53"},
{"name":"plan M","trans_speed":84,"plan_type":true,"promotion":true,"value":"$31953.67"},
{"name":"plan L","trans_speed":11,"plan_type":false,"promotion":false,"value":"$11119.78"},
{"name":"plan Esquilax","trans_speed":98,"plan_type":false,"promotion":false,"value":"$12435.98"},
{"name":"plan S","trans_speed":81,"plan_type":false,"promotion":false,"value":"$17555.84"},
{"name":"plan S","trans_speed":44,"plan_type":false,"promotion":false,"value":"$34569.40"},
{"name":"plan M","trans_speed":84,"plan_type":false,"promotion":false,"value":"$26058.92"},
{"name":"plan S","trans_speed":71,"plan_type":false,"promotion":true,"value":"$32266.66"},
{"name":"plan L","trans_speed":24,"plan_type":false,"promotion":true,"value":"$16635.72"},
{"name":"plan M","trans_speed":69,"plan_type":true,"promotion":false,"value":"$26005.52"},
{"name":"plan Esquilax","trans_speed":9,"plan_type":true,"promotion":true,"value":"$23821.09"},
{"name":"plan S","trans_speed":31,"plan_type":true,"promotion":false,"value":"$25556.34"},
{"name":"plan M","trans_speed":59,"plan_type":false,"promotion":true,"value":"$9249.44"},
{"name":"plan L","trans_speed":97,"plan_type":true,"promotion":false,"value":"$21772.22"},
{"name":"plan M","trans_speed":16,"plan_type":false,"promotion":true,"value":"$33145.35"},
{"name":"plan L","trans_speed":47,"plan_type":true,"promotion":false,"value":"$22143.29"},
{"name":"plan S","trans_speed":23,"plan_type":false,"promotion":false,"value":"$24982.14"},
{"name":"plan Esquilax","trans_speed":51,"plan_type":true,"promotion":false,"value":"$17374.25"},
{"name":"plan M","trans_speed":100,"plan_type":false,"promotion":true,"value":"$11258.73"},
{"name":"plan L","trans_speed":49,"plan_type":false,"promotion":false,"value":"$31479.19"},
{"name":"plan S","trans_speed":79,"plan_type":false,"promotion":false,"value":"$19870.10"},
{"name":"plan M","trans_speed":67,"plan_type":false,"promotion":false,"value":"$17862.83"},
{"name":"plan L","trans_speed":24,"plan_type":true,"promotion":true,"value":"$33628.76"},
{"name":"plan S","trans_speed":13,"plan_type":false,"promotion":false,"value":"$18046.92"},
{"name":"plan S","trans_speed":100,"plan_type":true,"promotion":true,"value":"$12487.46"},
{"name":"plan M","trans_speed":18,"plan_type":false,"promotion":false,"value":"$25361.87"},
{"name":"plan L","trans_speed":20,"plan_type":false,"promotion":true,"value":"$30872.42"},
{"name":"plan S","trans_speed":9,"plan_type":false,"promotion":false,"value":"$23922.34"},
{"name":"plan M","trans_speed":18,"plan_type":false,"promotion":true,"value":"$29645.15"},
{"name":"plan L","trans_speed":48,"plan_type":true,"promotion":false,"value":"$25904.16"},
{"name":"plan L","trans_speed":85,"plan_type":false,"promotion":true,"value":"$26694.03"},
{"name":"plan L","trans_speed":18,"plan_type":true,"promotion":true,"value":"$18572.82"},
{"name":"plan Esquilax","trans_speed":82,"plan_type":true,"promotion":false,"value":"$33859.71"},
{"name":"plan L","trans_speed":26,"plan_type":false,"promotion":true,"value":"$22222.62"},
{"name":"plan L","trans_speed":15,"plan_type":false,"promotion":true,"value":"$26097.98"},
{"name":"plan M","trans_speed":43,"plan_type":true,"promotion":true,"value":"$14431.19"},
{"name":"plan M","trans_speed":64,"plan_type":true,"promotion":true,"value":"$20755.90"},
{"name":"plan S","trans_speed":89,"plan_type":false,"promotion":true,"value":"$24364.62"},
{"name":"plan M","trans_speed":15,"plan_type":false,"promotion":true,"value":"$27466.17"},
{"name":"plan Esquilax","trans_speed":90,"plan_type":true,"promotion":true,"value":"$20731.81"},
{"name":"plan S","trans_speed":83,"plan_type":false,"promotion":true,"value":"$21723.73"},
{"name":"plan S","trans_speed":90,"plan_type":false,"promotion":true,"value":"$21709.14"},
{"name":"plan S","trans_speed":26,"plan_type":false,"promotion":true,"value":"$33114.28"},
{"name":"plan S","trans_speed":43,"plan_type":true,"promotion":false,"value":"$15188.43"},
{"name":"plan M","trans_speed":86,"plan_type":false,"promotion":true,"value":"$34480.55"},
{"name":"plan S","trans_speed":42,"plan_type":false,"promotion":false,"value":"$12331.02"},
{"name":"plan L","trans_speed":74,"plan_type":false,"promotion":false,"value":"$24762.83"},
{"name":"plan Esquilax","trans_speed":40,"plan_type":true,"promotion":true,"value":"$31365.12"},
{"name":"plan Esquilax","trans_speed":65,"plan_type":false,"promotion":true,"value":"$15721.62"},
{"name":"plan L","trans_speed":38,"plan_type":false,"promotion":false,"value":"$28144.01"},
{"name":"plan L","trans_speed":50,"plan_type":true,"promotion":false,"value":"$27129.32"},
{"name":"plan Esquilax","trans_speed":55,"plan_type":true,"promotion":false,"value":"$26043.37"},
{"name":"plan S","trans_speed":65,"plan_type":true,"promotion":false,"value":"$21603.11"},
{"name":"plan S","trans_speed":97,"plan_type":true,"promotion":false,"value":"$27505.90"},
{"name":"plan M","trans_speed":42,"plan_type":false,"promotion":false,"value":"$26453.91"},
{"name":"plan M","trans_speed":12,"plan_type":false,"promotion":false,"value":"$26368.09"},
{"name":"plan L","trans_speed":72,"plan_type":false,"promotion":true,"value":"$22555.39"},
{"name":"plan L","trans_speed":31,"plan_type":true,"promotion":true,"value":"$27470.88"},
{"name":"plan Esquilax","trans_speed":67,"plan_type":true,"promotion":false,"value":"$34134.24"},
{"name":"plan L","trans_speed":77,"plan_type":true,"promotion":true,"value":"$29401.43"},
{"name":"plan Esquilax","trans_speed":25,"plan_type":true,"promotion":true,"value":"$20614.56"},
{"name":"plan Esquilax","trans_speed":57,"plan_type":true,"promotion":true,"value":"$27100.98"},
{"name":"plan S","trans_speed":55,"plan_type":true,"promotion":false,"value":"$32790.90"},
{"name":"plan L","trans_speed":79,"plan_type":false,"promotion":false,"value":"$24505.89"},
{"name":"plan S","trans_speed":8,"plan_type":false,"promotion":true,"value":"$20711.32"},
{"name":"plan Esquilax","trans_speed":32,"plan_type":false,"promotion":false,"value":"$25487.25"},
{"name":"plan M","trans_speed":45,"plan_type":true,"promotion":true,"value":"$24968.71"},
{"name":"plan M","trans_speed":55,"plan_type":true,"promotion":true,"value":"$19635.51"},
{"name":"plan L","trans_speed":83,"plan_type":true,"promotion":true,"value":"$29471.08"},
{"name":"plan Esquilax","trans_speed":74,"plan_type":true,"promotion":false,"value":"$12306.35"},
{"name":"plan Esquilax","trans_speed":16,"plan_type":false,"promotion":false,"value":"$22669.38"},
{"name":"plan S","trans_speed":10,"plan_type":true,"promotion":false,"value":"$33241.10"},
{"name":"plan M","trans_speed":37,"plan_type":false,"promotion":true,"value":"$20025.49"},
{"name":"plan L","trans_speed":15,"plan_type":false,"promotion":true,"value":"$10237.20"},
{"name":"plan M","trans_speed":61,"plan_type":true,"promotion":true,"value":"$12584.82"},
{"name":"plan S","trans_speed":58,"plan_type":true,"promotion":true,"value":"$11208.78"},
{"name":"plan S","trans_speed":97,"plan_type":true,"promotion":false,"value":"$26089.59"},
{"name":"plan Esquilax","trans_speed":18,"plan_type":true,"promotion":true,"value":"$34710.17"},
{"name":"plan L","trans_speed":44,"plan_type":false,"promotion":true,"value":"$34222.09"},
{"name":"plan L","trans_speed":76,"plan_type":false,"promotion":true,"value":"$26877.77"},
{"name":"plan M","trans_speed":30,"plan_type":false,"promotion":true,"value":"$21180.14"},
{"name":"plan M","trans_speed":36,"plan_type":true,"promotion":false,"value":"$21370.18"},
{"name":"plan L","trans_speed":87,"plan_type":true,"promotion":true,"value":"$22991.72"},
{"name":"plan M","trans_speed":52,"plan_type":false,"promotion":false,"value":"$20861.50"},
{"name":"plan S","trans_speed":82,"plan_type":true,"promotion":true,"value":"$14068.98"},
{"name":"plan Esquilax","trans_speed":43,"plan_type":true,"promotion":true,"value":"$18793.06"},
{"name":"plan M","trans_speed":59,"plan_type":true,"promotion":false,"value":"$18701.81"},
{"name":"plan M","trans_speed":22,"plan_type":false,"promotion":false,"value":"$10704.67"},
{"name":"plan S","trans_speed":73,"plan_type":true,"promotion":true,"value":"$22183.07"},
{"name":"plan M","trans_speed":68,"plan_type":true,"promotion":false,"value":"$27683.02"},
{"name":"plan L","trans_speed":60,"plan_type":true,"promotion":true,"value":"$9479.37"},
{"name":"plan M","trans_speed":86,"plan_type":true,"promotion":true,"value":"$28531.26"},
{"name":"plan S","trans_speed":88,"plan_type":false,"promotion":false,"value":"$32347.90"},
{"name":"plan S","trans_speed":30,"plan_type":true,"promotion":true,"value":"$34578.96"},
{"name":"plan Esquilax","trans_speed":31,"plan_type":true,"promotion":false,"value":"$22547.32"},
{"name":"plan L","trans_speed":90,"plan_type":true,"promotion":true,"value":"$33910.01"},
{"name":"plan S","trans_speed":83,"plan_type":true,"promotion":false,"value":"$30216.99"},
{"name":"plan S","trans_speed":27,"plan_type":false,"promotion":false,"value":"$18976.74"},
{"name":"plan S","trans_speed":15,"plan_type":false,"promotion":false,"value":"$16996.95"},
{"name":"plan Esquilax","trans_speed":44,"plan_type":false,"promotion":true,"value":"$32439.62"},
{"name":"plan Esquilax","trans_speed":98,"plan_type":true,"promotion":true,"value":"$18243.68"},
{"name":"plan Esquilax","trans_speed":96,"plan_type":true,"promotion":false,"value":"$16728.44"},
{"name":"plan M","trans_speed":15,"plan_type":true,"promotion":false,"value":"$22629.76"},
{"name":"plan L","trans_speed":20,"plan_type":true,"promotion":true,"value":"$26470.49"},
{"name":"plan L","trans_speed":15,"plan_type":true,"promotion":false,"value":"$25116.15"},
{"name":"plan L","trans_speed":20,"plan_type":false,"promotion":true,"value":"$30659.14"},
{"name":"plan Esquilax","trans_speed":90,"plan_type":true,"promotion":true,"value":"$34078.81"},
{"name":"plan M","trans_speed":57,"plan_type":false,"promotion":true,"value":"$29610.43"},
{"name":"plan L","trans_speed":26,"plan_type":false,"promotion":true,"value":"$30156.90"},
{"name":"plan Esquilax","trans_speed":56,"plan_type":true,"promotion":true,"value":"$20091.72"},
{"name":"plan S","trans_speed":22,"plan_type":false,"promotion":true,"value":"$20971.73"},
{"name":"plan L","trans_speed":38,"plan_type":false,"promotion":true,"value":"$17641.85"},
{"name":"plan L","trans_speed":69,"plan_type":false,"promotion":false,"value":"$13560.15"},
{"name":"plan S","trans_speed":62,"plan_type":true,"promotion":false,"value":"$16877.92"},
{"name":"plan M","trans_speed":97,"plan_type":false,"promotion":false,"value":"$21279.33"},
{"name":"plan Esquilax","trans_speed":72,"plan_type":true,"promotion":false,"value":"$27028.28"},
{"name":"plan M","trans_speed":24,"plan_type":true,"promotion":false,"value":"$21071.20"},
{"name":"plan Esquilax","trans_speed":37,"plan_type":false,"promotion":false,"value":"$22256.20"},
{"name":"plan L","trans_speed":73,"plan_type":true,"promotion":true,"value":"$27716.90"},
{"name":"plan S","trans_speed":46,"plan_type":true,"promotion":true,"value":"$34949.83"},
{"name":"plan S","trans_speed":43,"plan_type":true,"promotion":false,"value":"$19538.95"},
{"name":"plan L","trans_speed":10,"plan_type":true,"promotion":true,"value":"$13981.85"},
{"name":"plan S","trans_speed":30,"plan_type":false,"promotion":true,"value":"$9274.89"},
{"name":"plan S","trans_speed":39,"plan_type":false,"promotion":true,"value":"$31727.23"},
{"name":"plan S","trans_speed":46,"plan_type":false,"promotion":true,"value":"$13913.73"},
{"name":"plan Esquilax","trans_speed":46,"plan_type":true,"promotion":false,"value":"$11074.69"},
{"name":"plan Esquilax","trans_speed":63,"plan_type":false,"promotion":false,"value":"$17635.78"},
{"name":"plan S","trans_speed":97,"plan_type":true,"promotion":true,"value":"$27128.93"},
{"name":"plan Esquilax","trans_speed":59,"plan_type":true,"promotion":true,"value":"$18865.60"},
{"name":"plan M","trans_speed":50,"plan_type":false,"promotion":true,"value":"$13397.79"},
{"name":"plan M","trans_speed":50,"plan_type":true,"promotion":true,"value":"$34539.86"},
{"name":"plan Esquilax","trans_speed":24,"plan_type":true,"promotion":false,"value":"$15006.41"},
{"name":"plan M","trans_speed":24,"plan_type":false,"promotion":true,"value":"$30402.50"},
{"name":"plan M","trans_speed":46,"plan_type":true,"promotion":true,"value":"$28347.94"},
{"name":"plan S","trans_speed":22,"plan_type":false,"promotion":true,"value":"$33455.57"},
{"name":"plan M","trans_speed":47,"plan_type":false,"promotion":true,"value":"$32429.74"},
{"name":"plan L","trans_speed":10,"plan_type":false,"promotion":false,"value":"$31619.32"},
{"name":"plan L","trans_speed":73,"plan_type":true,"promotion":false,"value":"$24001.05"},
{"name":"plan L","trans_speed":73,"plan_type":false,"promotion":false,"value":"$32719.36"},
{"name":"plan M","trans_speed":40,"plan_type":false,"promotion":false,"value":"$9811.49"},
{"name":"plan M","trans_speed":44,"plan_type":true,"promotion":true,"value":"$27338.87"},
{"name":"plan M","trans_speed":25,"plan_type":true,"promotion":false,"value":"$29647.38"},
{"name":"plan M","trans_speed":17,"plan_type":true,"promotion":false,"value":"$16960.90"},
{"name":"plan L","trans_speed":70,"plan_type":true,"promotion":false,"value":"$24324.79"},
{"name":"plan M","trans_speed":69,"plan_type":false,"promotion":true,"value":"$21873.39"},
{"name":"plan L","trans_speed":99,"plan_type":true,"promotion":false,"value":"$31544.94"},
{"name":"plan L","trans_speed":46,"plan_type":true,"promotion":false,"value":"$17639.07"},
{"name":"plan S","trans_speed":22,"plan_type":true,"promotion":true,"value":"$34432.33"},
{"name":"plan L","trans_speed":65,"plan_type":true,"promotion":false,"value":"$18035.49"},
{"name":"plan M","trans_speed":74,"plan_type":false,"promotion":true,"value":"$16585.78"},
{"name":"plan Esquilax","trans_speed":22,"plan_type":false,"promotion":true,"value":"$14710.37"},
{"name":"plan Esquilax","trans_speed":86,"plan_type":true,"promotion":true,"value":"$13071.23"},
{"name":"plan M","trans_speed":91,"plan_type":true,"promotion":false,"value":"$30078.02"},
{"name":"plan S","trans_speed":69,"plan_type":true,"promotion":true,"value":"$17420.40"},
{"name":"plan L","trans_speed":91,"plan_type":false,"promotion":true,"value":"$20825.85"},
{"name":"plan S","trans_speed":16,"plan_type":false,"promotion":false,"value":"$26451.06"},
{"name":"plan M","trans_speed":21,"plan_type":false,"promotion":true,"value":"$14323.62"},
{"name":"plan Esquilax","trans_speed":65,"plan_type":false,"promotion":false,"value":"$30424.86"},
{"name":"plan S","trans_speed":99,"plan_type":true,"promotion":true,"value":"$11623.04"},
{"name":"plan L","trans_speed":97,"plan_type":false,"promotion":false,"value":"$33198.00"},
{"name":"plan Esquilax","trans_speed":74,"plan_type":true,"promotion":false,"value":"$13932.59"},
{"name":"plan S","trans_speed":13,"plan_type":false,"promotion":false,"value":"$22500.57"},
{"name":"plan S","trans_speed":94,"plan_type":false,"promotion":true,"value":"$11352.53"},
{"name":"plan Esquilax","trans_speed":76,"plan_type":true,"promotion":false,"value":"$16175.77"},
{"name":"plan Esquilax","trans_speed":66,"plan_type":true,"promotion":false,"value":"$21465.06"},
{"name":"plan Esquilax","trans_speed":98,"plan_type":false,"promotion":true,"value":"$17615.53"},
{"name":"plan L","trans_speed":88,"plan_type":false,"promotion":true,"value":"$13159.23"},
{"name":"plan S","trans_speed":83,"plan_type":true,"promotion":true,"value":"$23513.56"},
{"name":"plan Esquilax","trans_speed":25,"plan_type":true,"promotion":true,"value":"$26927.68"},
{"name":"plan M","trans_speed":61,"plan_type":true,"promotion":false,"value":"$18763.52"},
{"name":"plan M","trans_speed":69,"plan_type":true,"promotion":true,"value":"$28304.28"},
{"name":"plan Esquilax","trans_speed":77,"plan_type":true,"promotion":false,"value":"$23847.76"},
{"name":"plan Esquilax","trans_speed":31,"plan_type":false,"promotion":true,"value":"$19994.70"},
{"name":"plan M","trans_speed":19,"plan_type":true,"promotion":false,"value":"$26202.92"},
{"name":"plan S","trans_speed":24,"plan_type":true,"promotion":true,"value":"$19169.27"},
{"name":"plan M","trans_speed":46,"plan_type":true,"promotion":false,"value":"$26614.59"},
{"name":"plan Esquilax","trans_speed":67,"plan_type":true,"promotion":true,"value":"$17480.23"},
{"name":"plan S","trans_speed":14,"plan_type":false,"promotion":true,"value":"$11552.12"},
{"name":"plan S","trans_speed":64,"plan_type":false,"promotion":true,"value":"$27082.11"},
{"name":"plan L","trans_speed":45,"plan_type":true,"promotion":false,"value":"$30858.66"},
{"name":"plan Esquilax","trans_speed":29,"plan_type":true,"promotion":true,"value":"$29843.16"},
{"name":"plan M","trans_speed":10,"plan_type":false,"promotion":true,"value":"$12283.22"},
{"name":"plan S","trans_speed":60,"plan_type":true,"promotion":false,"value":"$30753.06"},
{"name":"plan S","trans_speed":17,"plan_type":false,"promotion":false,"value":"$25388.78"},
{"name":"plan Esquilax","trans_speed":71,"plan_type":false,"promotion":true,"value":"$17097.18"},
{"name":"plan S","trans_speed":79,"plan_type":true,"promotion":false,"value":"$12543.69"},
{"name":"plan M","trans_speed":61,"plan_type":false,"promotion":false,"value":"$20474.60"},
{"name":"plan S","trans_speed":72,"plan_type":false,"promotion":true,"value":"$14146.58"},
{"name":"plan S","trans_speed":64,"plan_type":true,"promotion":false,"value":"$9307.32"},
{"name":"plan S","trans_speed":71,"plan_type":true,"promotion":true,"value":"$11560.29"},
{"name":"plan S","trans_speed":85,"plan_type":false,"promotion":false,"value":"$24037.22"},
{"name":"plan S","trans_speed":99,"plan_type":true,"promotion":true,"value":"$10095.91"},
{"name":"plan L","trans_speed":93,"plan_type":true,"promotion":true,"value":"$24008.83"},
{"name":"plan M","trans_speed":52,"plan_type":true,"promotion":true,"value":"$27107.12"},
{"name":"plan L","trans_speed":64,"plan_type":true,"promotion":false,"value":"$21042.34"},
{"name":"plan Esquilax","trans_speed":33,"plan_type":false,"promotion":true,"value":"$20322.44"},
{"name":"plan L","trans_speed":32,"plan_type":true,"promotion":true,"value":"$16247.83"},
{"name":"plan S","trans_speed":65,"plan_type":true,"promotion":true,"value":"$26469.51"},
{"name":"plan L","trans_speed":17,"plan_type":false,"promotion":false,"value":"$10474.97"},
{"name":"plan Esquilax","trans_speed":18,"plan_type":true,"promotion":false,"value":"$13566.31"},
{"name":"plan M","trans_speed":56,"plan_type":false,"promotion":true,"value":"$30131.63"},
{"name":"plan Esquilax","trans_speed":32,"plan_type":true,"promotion":true,"value":"$16323.89"},
{"name":"plan Esquilax","trans_speed":31,"plan_type":true,"promotion":true,"value":"$29458.19"},
{"name":"plan S","trans_speed":54,"plan_type":true,"promotion":false,"value":"$16467.14"},
{"name":"plan Esquilax","trans_speed":32,"plan_type":true,"promotion":true,"value":"$26627.64"},
{"name":"plan L","trans_speed":16,"plan_type":false,"promotion":true,"value":"$20070.60"},
{"name":"plan L","trans_speed":91,"plan_type":true,"promotion":false,"value":"$10741.89"},
{"name":"plan L","trans_speed":11,"plan_type":false,"promotion":false,"value":"$25109.11"},
{"name":"plan S","trans_speed":52,"plan_type":true,"promotion":true,"value":"$32979.26"},
{"name":"plan M","trans_speed":21,"plan_type":false,"promotion":true,"value":"$25475.40"},
{"name":"plan S","trans_speed":96,"plan_type":false,"promotion":false,"value":"$28835.50"},
{"name":"plan M","trans_speed":29,"plan_type":false,"promotion":false,"value":"$29538.16"},
{"name":"plan S","trans_speed":33,"plan_type":true,"promotion":false,"value":"$28869.07"},
{"name":"plan L","trans_speed":36,"plan_type":true,"promotion":false,"value":"$10969.20"},
{"name":"plan S","trans_speed":18,"plan_type":false,"promotion":false,"value":"$19925.72"},
{"name":"plan M","trans_speed":54,"plan_type":false,"promotion":false,"value":"$23058.56"},
{"name":"plan Esquilax","trans_speed":10,"plan_type":true,"promotion":true,"value":"$10629.07"},
{"name":"plan M","trans_speed":45,"plan_type":true,"promotion":true,"value":"$34381.01"},
{"name":"plan S","trans_speed":80,"plan_type":true,"promotion":false,"value":"$22272.17"},
{"name":"plan L","trans_speed":82,"plan_type":false,"promotion":false,"value":"$14582.05"},
{"name":"plan Esquilax","trans_speed":62,"plan_type":false,"promotion":true,"value":"$22171.11"},
{"name":"plan Esquilax","trans_speed":30,"plan_type":false,"promotion":false,"value":"$30850.41"},
{"name":"plan L","trans_speed":58,"plan_type":true,"promotion":false,"value":"$17710.41"},
{"name":"plan Esquilax","trans_speed":17,"plan_type":true,"promotion":true,"value":"$15780.01"},
{"name":"plan L","trans_speed":94,"plan_type":true,"promotion":true,"value":"$24790.00"},
{"name":"plan L","trans_speed":84,"plan_type":false,"promotion":false,"value":"$16934.09"},
{"name":"plan Esquilax","trans_speed":89,"plan_type":true,"promotion":true,"value":"$31976.48"},
{"name":"plan M","trans_speed":36,"plan_type":true,"promotion":false,"value":"$19047.46"},
{"name":"plan L","trans_speed":67,"plan_type":false,"promotion":true,"value":"$26270.85"},
{"name":"plan Esquilax","trans_speed":100,"plan_type":true,"promotion":false,"value":"$23763.99"},
{"name":"plan L","trans_speed":69,"plan_type":false,"promotion":false,"value":"$13919.71"},
{"name":"plan M","trans_speed":43,"plan_type":true,"promotion":false,"value":"$18346.66"},
{"name":"plan L","trans_speed":74,"plan_type":false,"promotion":true,"value":"$22515.89"},
{"name":"plan Esquilax","trans_speed":15,"plan_type":true,"promotion":false,"value":"$18753.05"},
{"name":"plan S","trans_speed":21,"plan_type":false,"promotion":true,"value":"$27731.22"},
{"name":"plan Esquilax","trans_speed":99,"plan_type":true,"promotion":true,"value":"$10922.11"},
{"name":"plan Esquilax","trans_speed":11,"plan_type":false,"promotion":false,"value":"$24834.82"},
{"name":"plan L","trans_speed":93,"plan_type":false,"promotion":true,"value":"$24704.77"},
{"name":"plan L","trans_speed":82,"plan_type":true,"promotion":true,"value":"$12105.78"},
{"name":"plan S","trans_speed":53,"plan_type":false,"promotion":false,"value":"$10766.15"},
{"name":"plan S","trans_speed":47,"plan_type":true,"promotion":false,"value":"$13562.50"},
{"name":"plan Esquilax","trans_speed":25,"plan_type":true,"promotion":true,"value":"$26355.33"},
{"name":"plan Esquilax","trans_speed":92,"plan_type":false,"promotion":false,"value":"$14068.87"},
{"name":"plan M","trans_speed":72,"plan_type":true,"promotion":true,"value":"$30138.40"},
{"name":"plan S","trans_speed":60,"plan_type":false,"promotion":true,"value":"$30487.49"},
{"name":"plan S","trans_speed":10,"plan_type":false,"promotion":false,"value":"$23851.90"},
{"name":"plan L","trans_speed":18,"plan_type":false,"promotion":true,"value":"$11094.63"},
{"name":"plan L","trans_speed":51,"plan_type":true,"promotion":false,"value":"$34100.15"},
{"name":"plan Esquilax","trans_speed":12,"plan_type":false,"promotion":false,"value":"$31923.01"},
{"name":"plan M","trans_speed":29,"plan_type":true,"promotion":true,"value":"$17509.13"},
{"name":"plan M","trans_speed":62,"plan_type":true,"promotion":false,"value":"$29843.18"},
{"name":"plan Esquilax","trans_speed":32,"plan_type":true,"promotion":false,"value":"$18069.25"},
{"name":"plan L","trans_speed":50,"plan_type":false,"promotion":true,"value":"$34317.28"},
{"name":"plan S","trans_speed":95,"plan_type":false,"promotion":true,"value":"$26697.65"},
{"name":"plan M","trans_speed":85,"plan_type":false,"promotion":true,"value":"$17998.46"},
{"name":"plan S","trans_speed":41,"plan_type":true,"promotion":false,"value":"$18196.62"},
{"name":"plan L","trans_speed":80,"plan_type":true,"promotion":true,"value":"$17940.73"},
{"name":"plan L","trans_speed":91,"plan_type":false,"promotion":false,"value":"$28047.88"},
{"name":"plan M","trans_speed":55,"plan_type":false,"promotion":false,"value":"$22108.03"},
{"name":"plan Esquilax","trans_speed":16,"plan_type":false,"promotion":true,"value":"$29470.66"},
{"name":"plan S","trans_speed":20,"plan_type":true,"promotion":false,"value":"$22578.37"},
{"name":"plan L","trans_speed":38,"plan_type":false,"promotion":true,"value":"$23456.48"},
{"name":"plan L","trans_speed":72,"plan_type":false,"promotion":true,"value":"$25940.93"},
{"name":"plan S","trans_speed":31,"plan_type":false,"promotion":true,"value":"$23665.46"},
{"name":"plan M","trans_speed":80,"plan_type":true,"promotion":true,"value":"$30576.17"},
{"name":"plan L","trans_speed":72,"plan_type":false,"promotion":false,"value":"$25212.03"},
{"name":"plan L","trans_speed":98,"plan_type":true,"promotion":false,"value":"$32122.84"},
{"name":"plan M","trans_speed":96,"plan_type":true,"promotion":false,"value":"$26618.61"},
{"name":"plan S","trans_speed":91,"plan_type":true,"promotion":false,"value":"$24429.79"},
{"name":"plan Esquilax","trans_speed":15,"plan_type":true,"promotion":true,"value":"$28562.29"},
{"name":"plan L","trans_speed":64,"plan_type":false,"promotion":true,"value":"$10220.18"},
{"name":"plan M","trans_speed":95,"plan_type":false,"promotion":false,"value":"$30342.72"},
{"name":"plan L","trans_speed":66,"plan_type":false,"promotion":true,"value":"$18476.30"},
{"name":"plan M","trans_speed":18,"plan_type":true,"promotion":true,"value":"$13923.59"},
{"name":"plan S","trans_speed":38,"plan_type":false,"promotion":false,"value":"$17578.15"},
{"name":"plan Esquilax","trans_speed":87,"plan_type":true,"promotion":true,"value":"$19758.52"},
{"name":"plan Esquilax","trans_speed":93,"plan_type":false,"promotion":false,"value":"$17322.89"},
{"name":"plan M","trans_speed":70,"plan_type":true,"promotion":true,"value":"$34034.91"},
{"name":"plan S","trans_speed":31,"plan_type":false,"promotion":false,"value":"$9046.13"},
{"name":"plan M","trans_speed":27,"plan_type":false,"promotion":false,"value":"$29453.63"},
{"name":"plan M","trans_speed":10,"plan_type":false,"promotion":false,"value":"$33050.52"},
{"name":"plan S","trans_speed":55,"plan_type":false,"promotion":true,"value":"$26995.66"},
{"name":"plan M","trans_speed":85,"plan_type":true,"promotion":false,"value":"$24828.53"},
{"name":"plan L","trans_speed":92,"plan_type":false,"promotion":false,"value":"$33285.62"},
{"name":"plan M","trans_speed":57,"plan_type":true,"promotion":false,"value":"$34486.22"},
{"name":"plan S","trans_speed":69,"plan_type":true,"promotion":true,"value":"$13770.48"},
{"name":"plan Esquilax","trans_speed":13,"plan_type":false,"promotion":true,"value":"$17033.97"},
{"name":"plan L","trans_speed":68,"plan_type":false,"promotion":true,"value":"$18938.13"},
{"name":"plan Esquilax","trans_speed":35,"plan_type":false,"promotion":true,"value":"$29170.22"},
{"name":"plan M","trans_speed":14,"plan_type":true,"promotion":true,"value":"$16823.80"},
{"name":"plan M","trans_speed":91,"plan_type":true,"promotion":false,"value":"$10728.95"},
{"name":"plan L","trans_speed":84,"plan_type":false,"promotion":false,"value":"$12280.38"},
{"name":"plan S","trans_speed":12,"plan_type":true,"promotion":false,"value":"$30240.06"},
{"name":"plan M","trans_speed":76,"plan_type":true,"promotion":true,"value":"$33670.45"},
{"name":"plan S","trans_speed":85,"plan_type":false,"promotion":false,"value":"$16368.91"},
{"name":"plan S","trans_speed":95,"plan_type":false,"promotion":false,"value":"$10251.32"},
{"name":"plan Esquilax","trans_speed":85,"plan_type":false,"promotion":true,"value":"$20503.45"},
{"name":"plan L","trans_speed":86,"plan_type":false,"promotion":true,"value":"$12935.35"},
{"name":"plan S","trans_speed":65,"plan_type":true,"promotion":true,"value":"$29868.83"},
{"name":"plan L","trans_speed":28,"plan_type":true,"promotion":true,"value":"$10064.15"},
{"name":"plan Esquilax","trans_speed":54,"plan_type":false,"promotion":false,"value":"$17437.13"},
{"name":"plan L","trans_speed":73,"plan_type":false,"promotion":false,"value":"$22317.69"},
{"name":"plan M","trans_speed":30,"plan_type":true,"promotion":true,"value":"$33452.51"},
{"name":"plan L","trans_speed":18,"plan_type":true,"promotion":false,"value":"$22507.18"},
{"name":"plan L","trans_speed":88,"plan_type":false,"promotion":true,"value":"$32857.68"},
{"name":"plan M","trans_speed":77,"plan_type":false,"promotion":true,"value":"$25789.06"},
{"name":"plan Esquilax","trans_speed":55,"plan_type":false,"promotion":true,"value":"$21177.66"},
{"name":"plan M","trans_speed":70,"plan_type":false,"promotion":true,"value":"$32432.12"},
{"name":"plan Esquilax","trans_speed":69,"plan_type":false,"promotion":false,"value":"$28998.30"},
{"name":"plan Esquilax","trans_speed":92,"plan_type":false,"promotion":false,"value":"$15754.24"},
{"name":"plan M","trans_speed":46,"plan_type":false,"promotion":true,"value":"$19601.01"},
{"name":"plan M","trans_speed":93,"plan_type":false,"promotion":false,"value":"$29374.26"},
{"name":"plan Esquilax","trans_speed":96,"plan_type":true,"promotion":true,"value":"$29344.88"},
{"name":"plan L","trans_speed":87,"plan_type":false,"promotion":false,"value":"$20802.43"},
{"name":"plan S","trans_speed":75,"plan_type":false,"promotion":false,"value":"$24839.52"},
{"name":"plan L","trans_speed":82,"plan_type":false,"promotion":false,"value":"$18777.16"},
{"name":"plan L","trans_speed":87,"plan_type":false,"promotion":true,"value":"$22342.68"},
{"name":"plan M","trans_speed":49,"plan_type":true,"promotion":true,"value":"$29730.56"},
{"name":"plan S","trans_speed":82,"plan_type":true,"promotion":true,"value":"$34569.36"},
{"name":"plan M","trans_speed":24,"plan_type":false,"promotion":false,"value":"$31607.74"}]